R Class 1 Getting Started with Data in R | 01-intro-r.utf8.md
…
read_csv('data/aug6_12_arrest_data.csv')

## Parsed with column specification:
## cols(
##   latitude = col_double(),
##   longitude = col_double(),
##   zipcode = col_double(),
##   age = col_double(),
##   sex = col_character(),
##   race_cat = col_character(),
##   arrest_type = col_character(),
##   arr_date2 = col_date(format = "")
## )

## # A tibble: 2,369 x 8
##    latitude longitude zipcode   age sex   race_cat arrest_type arr_date2 
##       <dbl>     <dbl>   <dbl> <dbl> <chr> <chr>    <chr>       <date>    
##  1     34.0     -118.   90021    52 M     LatinX   Misdemeanor 2018-08-12
##  2     33.9     -118.   90059    37 M     Black    Misdemeanor 2018-08-12
##  3     34.1     -118.   90036    28 M     Black    Misdemeanor 2018-08-12
##  4     34.2     -118.   91605    28 M     LatinX   Misdemeanor 2018-08-12
##  5     34.0     -118.   90037    23 M     LatinX   Felony      2018-08-12
##  6     34.3     -118.   91342    36 M     LatinX   Misdemeanor 2018-08-12
##  7     34.2     -119.   91324    62 M     LatinX   Misdemeanor 2018-08-12
##  8     34.2     -118.   91401    36 M     Other    Misdemeanor 2018-08-12
##  9     34.1     -118.   90046    28 M     Black    Misdemeanor 2018-08-12
## 10     34.1     -118.   91604    53 M     White    Misdemeanor 2018-08-12
## # … with 2,359 more rows
…
