R Class 2 Getting Started with Data in R | African American Studies 188: Intro to R & Mapping in R
…
## Parsed with column specification:
## cols(
##   latitude = col_double(),
##   longitude = col_double(),
##   zipcode = col_double(),
##   arr_date2 = col_date(format = ""),
##   arrest_time = col_time(format = ""),
##   age = col_double(),
##   sex = col_character(),
##   race_cat = col_character(),
##   arrest_type = col_character(),
##   charge = col_character()
## )

## # A tibble: 2,368 x 10
##    latitude longitude zipcode arr_date2  arrest_time   age sex   race_cat
##       <dbl>     <dbl>   <dbl> <date>     <time>      <dbl> <chr> <chr>   
##  1     34.0     -118.   90021 2018-08-12 15:00          52 M     LatinX  
##  2     33.9     -118.   90059 2018-08-12 22:00          37 M     Black   
##  3     34.1     -118.   90036 2018-08-12 22:20          28 M     Black   
##  4     34.2     -118.   91605 2018-08-12 18:40          28 M     LatinX  
##  5     34.0     -118.   90037 2018-08-12 19:30          23 M     LatinX  
##  6     34.3     -118.   91342 2018-08-12 19:48          36 M     LatinX  
##  7     34.2     -119.   91324 2018-08-12 01:35          62 M     LatinX  
##  8     34.2     -118.   91401 2018-08-12 15:00          36 M     Other   
##  9     34.1     -118.   90046 2018-08-12 15:00          28 M     Black   
## 10     34.1     -118.   91604 2018-08-12 08:00          53 M     White   
## # … with 2,358 more rows, and 2 more variables: arrest_type <chr>,
## #   charge <chr>
…
